^C:\USERS\ALISO\REPOS\ASSIGNMENT1\ASSN1PIC10C\ASSN1PIC10C\CARDS.CPP|C:\USERS\ALISO\REPOS\ASSIGNMENT1\ASSN1PIC10C\ASSN1PIC10C\SIETE_Y_MEDIO.CPP
C:\USERS\ALISO\REPOS\ASSIGNMENT1\ASSN1PIC10C\ASSN1PIC10C\DEBUG\VC141.PDB
C:\USERS\ALISO\REPOS\ASSIGNMENT1\ASSN1PIC10C\ASSN1PIC10C\DEBUG\VC141.IDB
C:\USERS\ALISO\REPOS\ASSIGNMENT1\ASSN1PIC10C\ASSN1PIC10C\DEBUG\SIETE_Y_MEDIO.OBJ
^C:\USERS\ALISO\REPOS\ASSIGNMENT1\ASSN1PIC10C\ASSN1PIC10C\CARDS.CPP
C:\USERS\ALISO\REPOS\ASSIGNMENT1\ASSN1PIC10C\ASSN1PIC10C\DEBUG\VC141.PDB
C:\USERS\ALISO\REPOS\ASSIGNMENT1\ASSN1PIC10C\ASSN1PIC10C\DEBUG\VC141.IDB
^C:\USERS\ALISO\REPOS\ASSIGNMENT1\ASSN1PIC10C\ASSN1PIC10C\SIETE_Y_MEDIO.CPP
C:\USERS\ALISO\REPOS\ASSIGNMENT1\ASSN1PIC10C\ASSN1PIC10C\DEBUG\VC141.PDB
C:\USERS\ALISO\REPOS\ASSIGNMENT1\ASSN1PIC10C\ASSN1PIC10C\DEBUG\VC141.IDB
C:\USERS\ALISO\REPOS\ASSIGNMENT1\ASSN1PIC10C\ASSN1PIC10C\DEBUG\SIETE_Y_MEDIO.OBJ
